CODE;FIELD_NAME;DESCRIPTION;TYPE;LIST
010101;Fält text;Beskrivning fält text;TEXTFIELD;
010101;Fält text 2;Beskrivning fält text 2;TEXTFIELD;
010101;Fält decimal;Beskrivning fält decimal;DECIMAL;
010101;Fält decimal 2;Beskrivning fält decimal 2;DECIMAL;
010101;Fält interval;Beskrivning fält interval;INTERVAL;
010101;Fält interval 2;Beskrivning fält interval 2;INTERVAL;
010101;Fält select single;Beskrivning fält select single;VALUELIST_SINGLE;Ja:Nej:Kanske:Vet ej
010101;Fält select single 2;Beskrivning fält select single 2;VALUELIST_SINGLE;Ja:Nej:Kanske:Vet ej
010101;Fält select multiple;Beskrivning fält select multiple;VALUELIST_MULTIPLE;Val 1:Val 2:Val 3:Val 4
010101;Fält select multiple 2;Beskrivning fält select multiple 2;VALUELIST_MULTIPLE;Val 1:Val 2:Val 3:Val 4
010102;Fält text;Beskrivning fält text;TEXTFIELD;
020101;Fält text;Beskrivning fält text;TEXTFIELD;
020102;Fält text;Beskrivning fält text;TEXTFIELD;
020201;Fält text;Beskrivning fält text;TEXTFIELD;
020202;Fält text;Beskrivning fält text;TEXTFIELD;
020301-01;Fält text;Beskrivning fält text;TEXTFIELD;
020301-02;Fält text;Beskrivning fält text;TEXTFIELD;
020302;Fält text;Beskrivning fält text;TEXTFIELD;