ORDER;CODE;NAME
1;DT_1;Dokumenttyp 1
2;DT_2;Dokumenttyp 2
3;DT_3;Dokumenttyp 3
4;DT_4;Dokumenttyp 4
5;DT_5;Dokumenttyp 5
6;DT_6;Dokumenttyp 6
7;DT_7;Dokumenttyp 7
8;DT_8;Dokumenttyp 8
9;DT_9;Dokumenttyp 9
10;DT_10;Dokumenttyp 10
11;DT_11;Dokumenttyp 11
12;DT_12;Dokumenttyp 12