[
    {
        "sortOrder": 1,
        "name": "Extern Kategori 1",
        "description": "Beskrivning Extern Kategori 1",
        "children": [
            {
                "name": "Extern Kategori 1-1",
                "description": "Beskrivning Extern Kategori 1-1",
                "children": [
                    {
                        "name": "Extern Kategori 1-1-1",
                        "description": "Beskrivning Extern Kategori 1-1-1",
                        "category": "010101"
                    },
                    {
                        "name": "Extern Kategori 1-1-2",
                        "description": "Beskrivning Extern Kategori 1-1-2",
                        "category": "010102"
                    }
                ]
            },
            {
                "name": "Extern Kategori 1-2",
                "description": "Beskrivning Extern Kategori 1-2",
                "children": [
                    {
                        "name": "Extern Kategori 1-2-1",
                        "description": "Beskrivning Extern Kategori 1-2-1",
                        "category": "020101"
                    },
                    {
                        "name": "Extern Kategori 1-2-2",
                        "description": "Beskrivning Extern Kategori 1-2-2",
                        "category": "020102"
                    }
                ]                
            }
        ]
    },
    {
        "sortOrder": 2,
        "name": "Extern Kategori 2",
        "description": "Beskrivning Extern Kategori 2",
        "children": [
            {
                "name": "Extern Kategori 2-1",
                "description": "Beskrivning Extern Kategori 2-1",
                "children": [
                    {
                        "name": "Extern Kategori 2-1-1",
                        "description": "Beskrivning Extern Kategori 2-1-1",
                        "category": "020101"
                    },
                    {
                        "name": "Extern Kategori 2-1-2",
                        "description": "Beskrivning Extern Kategori 2-1-2",
                        "category": "020102"
                    }
                ] 
            },
            {
                "name": "Extern Kategori 2-2",
                "description": "Beskrivning Extern Kategori 2-2",
                "children": [
                    {
                        "name": "Extern Kategori 2-2-1",
                        "description": "Beskrivning Extern Kategori 2-2-1",
                        "category": "020201"
                    },
                    {
                        "name": "Extern Kategori 2-2-2",
                        "description": "Beskrivning Extern Kategori 2-2-2",
                        "category": "020202"
                    }
                ]
            }
        ]
    },
    {
        "sortOrder": 3,
        "name": "Extern Kategori 3",
        "description": "Beskrivning Extern Kategori 3",
        "children": [
            {
                "name": "Extern Kategori 3-1",
                "description": "Beskrivning Extern Kategori 2-1",
                "children": [
                    {
                        "name": "Extern Kategori 3-1-1",
                        "description": "Beskrivning Extern Kategori 3-1-1",
                        "children": [
                            {
                                "name": "Extern Kategori 3-1-1-1",
                                "description": "Beskrivning Extern Kategori 3-1-1-1",
                                "category": "020301-01"
                            },
                            {
                                "name": "Extern Kategori 3-1-1-2",
                                "description": "Beskrivning Extern Kategori 3-1-1-2",
                                "category": "020301-02"
                            }
                        ]
                    }
                ]
            }
        ]
    }
]